…
    ## Rows: 4342 Columns: 20
    ## ── Column specification ────────────────────────────────────────────────────────
    ## Delimiter: ","
    ## dbl (20): babysex, bhead, blength, bwt, delwt, fincome, frace, gaweeks, malf...
    ## 
    ## ℹ Use `spec()` to retrieve the full column specification for this data.
    ## ℹ Specify the column types or set `show_col_types = FALSE` to quiet this message.

``` r
birthweight_raw
```

    ## # A tibble: 4,342 × 20
    ##    babysex bhead blength   bwt delwt fincome frace gaweeks malform menarche
    ##      <dbl> <dbl>   <dbl> <dbl> <dbl>   <dbl> <dbl>   <dbl>   <dbl>    <dbl>
    ##  1       2    34      51  3629   177      35     1    39.9       0       13
    ##  2       1    34      48  3062   156      65     2    25.9       0       14
    ##  3       2    36      50  3345   148      85     1    39.9       0       12
    ##  4       1    34      52  3062   157      55     1    40         0       14
    ##  5       2    34      52  3374   156       5     1    41.6       0       13
    ##  6       1    33      52  3374   129      55     1    40.7       0       12
    ##  7       2    33      46  2523   126      96     2    40.3       0       14
    ##  8       2    33      49  2778   140       5     1    37.4       0       12
    ##  9       1    36      52  3515   146      85     1    40.3       0       11
    ## 10       1    33      50  3459   169      75     2    40.7       0       12
    ## # … with 4,332 more rows, and 10 more variables: mheight <dbl>, momage <dbl>,
    ## #   mrace <dbl>, parity <dbl>, pnumlbw <dbl>, pnumsga <dbl>, ppbmi <dbl>,
    ## #   ppwt <dbl>, smoken <dbl>, wtgain <dbl>
…
birthweight_df
```

    ## # A tibble: 4,342 × 20
    ##    babysex bhead blength   bwt delwt fincome frace gaweeks malform menarche
    ##    <fct>   <dbl>   <dbl> <dbl> <dbl>   <dbl> <fct>   <dbl> <fct>      <dbl>
    ##  1 Female     34      51  3629   177      35 White    39.9 Absent        13
    ##  2 Male       34      48  3062   156      65 Black    25.9 Absent        14
    ##  3 Female     36      50  3345   148      85 White    39.9 Absent        12
    ##  4 Male       34      52  3062   157      55 White    40   Absent        14
    ##  5 Female     34      52  3374   156       5 White    41.6 Absent        13
    ##  6 Male       33      52  3374   129      55 White    40.7 Absent        12
    ##  7 Female     33      46  2523   126      96 Black    40.3 Absent        14
    ##  8 Female     33      49  2778   140       5 White    37.4 Absent        12
    ##  9 Male       36      52  3515   146      85 White    40.3 Absent        11
    ## 10 Male       33      50  3459   169      75 Black    40.7 Absent        12
    ## # … with 4,332 more rows, and 10 more variables: mheight <dbl>, momage <dbl>,
    ## #   mrace <fct>, parity <dbl>, pnumlbw <dbl>, pnumsga <dbl>, ppbmi <dbl>,
    ## #   ppwt <dbl>, smoken <dbl>, wtgain <dbl>
…
